{
  "journeys": [
    {
      "Start": "2022-12-06T10:30:00", 
      "StartCityId" :  1,
      "EndCityId" :  2
    }
  ],
  "cities": [
    {"Id" : 1, "Name" :  "Paris"},
    {"Id" : 2, "Name" :  "Lille"},
    {"Id" : 3, "Name" :  "Marseille"},
    {"Id" : 4, "Name" :  "Angers"}
  ],
  "tickets": [

  ]
}
